{
    "$id": "http://crawl-e.cinepass.de/schemas/config-schema_hooks.json",
    "$schema": "http://json-schema.org/draft-07/schema#",
    "properties": {
        "afterRequest": {
            "description": "Hook to change the response and error of a request or enhance the context.",
            "typeof": "function"
        },
        "beforeCrawling": {
            "description": "Hook to perform some preparation work, such as building cookies or crawling addiontal data.",
            "typeof": "function"
        },
        "beforeSave": {
            "description": "Hook to clean up output results before saving them to json file.",
            "typeof": "function"
        },
        "buildFilename": {
            "description": "Hook to build custom filenames based on crawler.id or cinema properties.",
            "typeof": "function"
        },
        "configureRequest": {
            "description": "Hook to apply custom configuration of superagent request before executing them.",
            "typeof": "function"
        },
        "handleCinemaDetailsResponse": {
            "description": "Hook to replace the entire response handling (including parsing) of cinema detail pages.",
            "typeof": "function"
        },
        "handleCinemasResponse": {
            "description": "Hook to replace the entire response handling (including parsing) of cinema list pages.",
            "typeof": "function"
        },
        "handleDatesResponse": {
            "description": "Hook to replace the entire response handling (including parsing) of date list pages.",
            "typeof": "function"
        },
        "handleMoviesResponse": {
            "description": "Hook to replace the entire response handling (including parsing) of movie list pages.",
            "typeof": "function"
        },
        "handleShowtimesResponse": {
            "description": "Hook to replace the entire response handling (including parsing) of showtimes.",
            "typeof": "function"
        },
        "progress": {
            "description": "Hook to update UI with crawling progress.",
            "typeof": "function"
        }
    },
    "type": "object"
}