{
    "$id": "http://crawl-e.cinepass.de/schemas/context-schema.json",
    "$ref": "http://crawl-e.cinepass.de/schemas/context-schema.json#/definitions/default",
    "$schema": "http://json-schema.org/draft-07/schema#",
    "definitions": {
        "Chai.Assertion": {
            "properties": {
                "Arguments": {
                    "$ref": "http://crawl-e.cinepass.de/schemas/context-schema.json#/definitions/Chai.Assertion"
                },
                "NaN": {
                    "$ref": "http://crawl-e.cinepass.de/schemas/context-schema.json#/definitions/Chai.Assertion"
                },
                "Throw": {
                    "$ref": "http://crawl-e.cinepass.de/schemas/context-schema.json#/definitions/Chai.Throw"
                },
                "a": {
                    "$ref": "http://crawl-e.cinepass.de/schemas/context-schema.json#/definitions/Chai.Assertion"
                },
                "above": {
                    "$ref": "http://crawl-e.cinepass.de/schemas/context-schema.json#/definitions/Chai.NumberComparer"
                },
                "all": {
                    "$ref": "http://crawl-e.cinepass.de/schemas/context-schema.json#/definitions/Chai.KeyFilter"
                },
                "an": {
                    "$ref": "http://crawl-e.cinepass.de/schemas/context-schema.json#/definitions/Chai.Assertion"
                },
                "and": {
                    "$ref": "http://crawl-e.cinepass.de/schemas/context-schema.json#/definitions/Chai.Assertion"
                },
                "any": {
                    "$ref": "http://crawl-e.cinepass.de/schemas/context-schema.json#/definitions/Chai.KeyFilter"
                },
                "approximately": {
                    "$ref": "http://crawl-e.cinepass.de/schemas/context-schema.json#/definitions/Chai.CloseTo"
                },
                "arguments": {
                    "$ref": "http://crawl-e.cinepass.de/schemas/context-schema.json#/definitions/Chai.Assertion"
                },
                "at": {
                    "$ref": "http://crawl-e.cinepass.de/schemas/context-schema.json#/definitions/Chai.Assertion"
                },
                "be": {
                    "$ref": "http://crawl-e.cinepass.de/schemas/context-schema.json#/definitions/Chai.Assertion"
                },
                "been": {
                    "$ref": "http://crawl-e.cinepass.de/schemas/context-schema.json#/definitions/Chai.Assertion"
                },
                "below": {
                    "$ref": "http://crawl-e.cinepass.de/schemas/context-schema.json#/definitions/Chai.NumberComparer"
                },
                "but": {
                    "$ref": "http://crawl-e.cinepass.de/schemas/context-schema.json#/definitions/Chai.Assertion"
                },
                "change": {
                    "$ref": "http://crawl-e.cinepass.de/schemas/context-schema.json#/definitions/Chai.PropertyChange"
                },
                "changes": {
                    "$ref": "http://crawl-e.cinepass.de/schemas/context-schema.json#/definitions/Chai.PropertyChange"
                },
                "closeTo": {
                    "$ref": "http://crawl-e.cinepass.de/schemas/context-schema.json#/definitions/Chai.CloseTo"
                },
                "contain": {
                    "$ref": "http://crawl-e.cinepass.de/schemas/context-schema.json#/definitions/Chai.Include"
                },
                "contains": {
                    "$ref": "http://crawl-e.cinepass.de/schemas/context-schema.json#/definitions/Chai.Include"
                },
                "decrease": {
                    "$ref": "http://crawl-e.cinepass.de/schemas/context-schema.json#/definitions/Chai.PropertyChange"
                },
                "decreases": {
                    "$ref": "http://crawl-e.cinepass.de/schemas/context-schema.json#/definitions/Chai.PropertyChange"
                },
                "deep": {
                    "$ref": "http://crawl-e.cinepass.de/schemas/context-schema.json#/definitions/Chai.Deep"
                },
                "does": {
                    "$ref": "http://crawl-e.cinepass.de/schemas/context-schema.json#/definitions/Chai.Assertion"
                },
                "empty": {
                    "$ref": "http://crawl-e.cinepass.de/schemas/context-schema.json#/definitions/Chai.Assertion"
                },
                "eq": {
                    "$ref": "http://crawl-e.cinepass.de/schemas/context-schema.json#/definitions/Chai.Equal"
                },
                "eql": {
                    "$ref": "http://crawl-e.cinepass.de/schemas/context-schema.json#/definitions/Chai.Equal"
                },
                "eqls": {
                    "$ref": "http://crawl-e.cinepass.de/schemas/context-schema.json#/definitions/Chai.Equal"
                },
                "equal": {
                    "$ref": "http://crawl-e.cinepass.de/schemas/context-schema.json#/definitions/Chai.Equal"
                },
                "equals": {
                    "$ref": "http://crawl-e.cinepass.de/schemas/context-schema.json#/definitions/Chai.Equal"
                },
                "exist": {
                    "$ref": "http://crawl-e.cinepass.de/schemas/context-schema.json#/definitions/Chai.Assertion"
                },
                "extensible": {
                    "$ref": "http://crawl-e.cinepass.de/schemas/context-schema.json#/definitions/Chai.Assertion"
                },
                "false": {
                    "$ref": "http://crawl-e.cinepass.de/schemas/context-schema.json#/definitions/Chai.Assertion"
                },
                "finite": {
                    "$ref": "http://crawl-e.cinepass.de/schemas/context-schema.json#/definitions/Chai.Assertion"
                },
                "frozen": {
                    "$ref": "http://crawl-e.cinepass.de/schemas/context-schema.json#/definitions/Chai.Assertion"
                },
                "greaterThan": {
                    "$ref": "http://crawl-e.cinepass.de/schemas/context-schema.json#/definitions/Chai.NumberComparer"
                },
                "greaterThanOrEqual": {
                    "$ref": "http://crawl-e.cinepass.de/schemas/context-schema.json#/definitions/Chai.NumberComparer"
                },
                "gt": {
                    "$ref": "http://crawl-e.cinepass.de/schemas/context-schema.json#/definitions/Chai.NumberComparer"
                },
                "gte": {
                    "$ref": "http://crawl-e.cinepass.de/schemas/context-schema.json#/definitions/Chai.NumberComparer"
                },
                "has": {
                    "$ref": "http://crawl-e.cinepass.de/schemas/context-schema.json#/definitions/Chai.Assertion"
                },
                "have": {
                    "$ref": "http://crawl-e.cinepass.de/schemas/context-schema.json#/definitions/Chai.Assertion"
                },
                "haveOwnProperty": {
                    "$ref": "http://crawl-e.cinepass.de/schemas/context-schema.json#/definitions/Chai.Property"
                },
                "haveOwnPropertyDescriptor": {
                    "$ref": "http://crawl-e.cinepass.de/schemas/context-schema.json#/definitions/Chai.OwnPropertyDescriptor"
                },
                "include": {
                    "$ref": "http://crawl-e.cinepass.de/schemas/context-schema.json#/definitions/Chai.Include"
                },
                "includes": {
                    "$ref": "http://crawl-e.cinepass.de/schemas/context-schema.json#/definitions/Chai.Include"
                },
                "increase": {
                    "$ref": "http://crawl-e.cinepass.de/schemas/context-schema.json#/definitions/Chai.PropertyChange"
                },
                "increases": {
                    "$ref": "http://crawl-e.cinepass.de/schemas/context-schema.json#/definitions/Chai.PropertyChange"
                },
                "instanceOf": {
                    "$ref": "http://crawl-e.cinepass.de/schemas/context-schema.json#/definitions/Chai.InstanceOf"
                },
                "instanceof": {
                    "$ref": "http://crawl-e.cinepass.de/schemas/context-schema.json#/definitions/Chai.InstanceOf"
                },
                "is": {
                    "$ref": "http://crawl-e.cinepass.de/schemas/context-schema.json#/definitions/Chai.Assertion"
                },
                "itself": {
                    "$ref": "http://crawl-e.cinepass.de/schemas/context-schema.json#/definitions/Chai.Assertion"
                },
                "keys": {
                    "$ref": "http://crawl-e.cinepass.de/schemas/context-schema.json#/definitions/Chai.Keys"
                },
                "least": {
                    "$ref": "http://crawl-e.cinepass.de/schemas/context-schema.json#/definitions/Chai.NumberComparer"
                },
                "length": {
                    "$ref": "http://crawl-e.cinepass.de/schemas/context-schema.json#/definitions/Chai.Length"
                },
                "lengthOf": {
                    "$ref": "http://crawl-e.cinepass.de/schemas/context-schema.json#/definitions/Chai.Length"
                },
                "lessThan": {
                    "$ref": "http://crawl-e.cinepass.de/schemas/context-schema.json#/definitions/Chai.NumberComparer"
                },
                "lessThanOrEqual": {
                    "$ref": "http://crawl-e.cinepass.de/schemas/context-schema.json#/definitions/Chai.NumberComparer"
                },
                "lt": {
                    "$ref": "http://crawl-e.cinepass.de/schemas/context-schema.json#/definitions/Chai.NumberComparer"
                },
                "lte": {
                    "$ref": "http://crawl-e.cinepass.de/schemas/context-schema.json#/definitions/Chai.NumberComparer"
                },
                "match": {
                    "$ref": "http://crawl-e.cinepass.de/schemas/context-schema.json#/definitions/Chai.Match"
                },
                "matches": {
                    "$ref": "http://crawl-e.cinepass.de/schemas/context-schema.json#/definitions/Chai.Match"
                },
                "members": {
                    "$ref": "http://crawl-e.cinepass.de/schemas/context-schema.json#/definitions/Chai.Members"
                },
                "most": {
                    "$ref": "http://crawl-e.cinepass.de/schemas/context-schema.json#/definitions/Chai.NumberComparer"
                },
                "nested": {
                    "$ref": "http://crawl-e.cinepass.de/schemas/context-schema.json#/definitions/Chai.Nested"
                },
                "not": {
                    "$ref": "http://crawl-e.cinepass.de/schemas/context-schema.json#/definitions/Chai.Assertion"
                },
                "null": {
                    "$ref": "http://crawl-e.cinepass.de/schemas/context-schema.json#/definitions/Chai.Assertion"
                },
                "of": {
                    "$ref": "http://crawl-e.cinepass.de/schemas/context-schema.json#/definitions/Chai.Assertion"
                },
                "ok": {
                    "$ref": "http://crawl-e.cinepass.de/schemas/context-schema.json#/definitions/Chai.Assertion"
                },
                "oneOf": {
                    "$ref": "http://crawl-e.cinepass.de/schemas/context-schema.json#/definitions/Chai.OneOf"
                },
                "ordered": {
                    "$ref": "http://crawl-e.cinepass.de/schemas/context-schema.json#/definitions/Chai.Ordered"
                },
                "own": {
                    "$ref": "http://crawl-e.cinepass.de/schemas/context-schema.json#/definitions/Chai.Own"
                },
                "ownProperty": {
                    "$ref": "http://crawl-e.cinepass.de/schemas/context-schema.json#/definitions/Chai.Property"
                },
                "ownPropertyDescriptor": {
                    "$ref": "http://crawl-e.cinepass.de/schemas/context-schema.json#/definitions/Chai.OwnPropertyDescriptor"
                },
                "property": {
                    "$ref": "http://crawl-e.cinepass.de/schemas/context-schema.json#/definitions/Chai.Property"
                },
                "respondTo": {
                    "$ref": "http://crawl-e.cinepass.de/schemas/context-schema.json#/definitions/Chai.RespondTo"
                },
                "respondsTo": {
                    "$ref": "http://crawl-e.cinepass.de/schemas/context-schema.json#/definitions/Chai.RespondTo"
                },
                "same": {
                    "$ref": "http://crawl-e.cinepass.de/schemas/context-schema.json#/definitions/Chai.Assertion"
                },
                "satisfies": {
                    "$ref": "http://crawl-e.cinepass.de/schemas/context-schema.json#/definitions/Chai.Satisfy"
                },
                "satisfy": {
                    "$ref": "http://crawl-e.cinepass.de/schemas/context-schema.json#/definitions/Chai.Satisfy"
                },
                "sealed": {
                    "$ref": "http://crawl-e.cinepass.de/schemas/context-schema.json#/definitions/Chai.Assertion"
                },
                "that": {
                    "$ref": "http://crawl-e.cinepass.de/schemas/context-schema.json#/definitions/Chai.Assertion"
                },
                "throw": {
                    "$ref": "http://crawl-e.cinepass.de/schemas/context-schema.json#/definitions/Chai.Throw"
                },
                "throws": {
                    "$ref": "http://crawl-e.cinepass.de/schemas/context-schema.json#/definitions/Chai.Throw"
                },
                "to": {
                    "$ref": "http://crawl-e.cinepass.de/schemas/context-schema.json#/definitions/Chai.Assertion"
                },
                "true": {
                    "$ref": "http://crawl-e.cinepass.de/schemas/context-schema.json#/definitions/Chai.Assertion"
                },
                "undefined": {
                    "$ref": "http://crawl-e.cinepass.de/schemas/context-schema.json#/definitions/Chai.Assertion"
                },
                "which": {
                    "$ref": "http://crawl-e.cinepass.de/schemas/context-schema.json#/definitions/Chai.Assertion"
                },
                "with": {
                    "$ref": "http://crawl-e.cinepass.de/schemas/context-schema.json#/definitions/Chai.Assertion"
                }
            },
            "type": "object"
        },
        "Chai.CloseTo": {
            "type": "object"
        },
        "Chai.Deep": {
            "properties": {
                "be": {
                    "$ref": "http://crawl-e.cinepass.de/schemas/context-schema.json#/definitions/Chai.Assertion"
                },
                "contain": {
                    "$ref": "http://crawl-e.cinepass.de/schemas/context-schema.json#/definitions/Chai.Include"
                },
                "contains": {
                    "$ref": "http://crawl-e.cinepass.de/schemas/context-schema.json#/definitions/Chai.Include"
                },
                "eq": {
                    "$ref": "http://crawl-e.cinepass.de/schemas/context-schema.json#/definitions/Chai.Equal"
                },
                "equal": {
                    "$ref": "http://crawl-e.cinepass.de/schemas/context-schema.json#/definitions/Chai.Equal"
                },
                "equals": {
                    "$ref": "http://crawl-e.cinepass.de/schemas/context-schema.json#/definitions/Chai.Equal"
                },
                "include": {
                    "$ref": "http://crawl-e.cinepass.de/schemas/context-schema.json#/definitions/Chai.Include"
                },
                "includes": {
                    "$ref": "http://crawl-e.cinepass.de/schemas/context-schema.json#/definitions/Chai.Include"
                },
                "keys": {
                    "$ref": "http://crawl-e.cinepass.de/schemas/context-schema.json#/definitions/Chai.Keys"
                },
                "members": {
                    "$ref": "http://crawl-e.cinepass.de/schemas/context-schema.json#/definitions/Chai.Members"
                },
                "nested": {
                    "$ref": "http://crawl-e.cinepass.de/schemas/context-schema.json#/definitions/Chai.Nested"
                },
                "oneOf": {
                    "$ref": "http://crawl-e.cinepass.de/schemas/context-schema.json#/definitions/Chai.OneOf"
                },
                "ordered": {
                    "$ref": "http://crawl-e.cinepass.de/schemas/context-schema.json#/definitions/Chai.Ordered"
                },
                "own": {
                    "$ref": "http://crawl-e.cinepass.de/schemas/context-schema.json#/definitions/Chai.Own"
                },
                "property": {
                    "$ref": "http://crawl-e.cinepass.de/schemas/context-schema.json#/definitions/Chai.Property"
                }
            },
            "type": "object"
        },
        "Chai.Equal": {
            "type": "object"
        },
        "Chai.Include": {
            "properties": {
                "all": {
                    "$ref": "http://crawl-e.cinepass.de/schemas/context-schema.json#/definitions/Chai.KeyFilter"
                },
                "any": {
                    "$ref": "http://crawl-e.cinepass.de/schemas/context-schema.json#/definitions/Chai.KeyFilter"
                },
                "deep": {
                    "$ref": "http://crawl-e.cinepass.de/schemas/context-schema.json#/definitions/Chai.Deep"
                },
                "keys": {
                    "$ref": "http://crawl-e.cinepass.de/schemas/context-schema.json#/definitions/Chai.Keys"
                },
                "members": {
                    "$ref": "http://crawl-e.cinepass.de/schemas/context-schema.json#/definitions/Chai.Members"
                },
                "oneOf": {
                    "$ref": "http://crawl-e.cinepass.de/schemas/context-schema.json#/definitions/Chai.OneOf"
                },
                "ordered": {
                    "$ref": "http://crawl-e.cinepass.de/schemas/context-schema.json#/definitions/Chai.Ordered"
                }
            },
            "type": "object"
        },
        "Chai.InstanceOf": {
            "type": "object"
        },
        "Chai.KeyFilter": {
            "properties": {
                "keys": {
                    "$ref": "http://crawl-e.cinepass.de/schemas/context-schema.json#/definitions/Chai.Keys"
                },
                "members": {
                    "$ref": "http://crawl-e.cinepass.de/schemas/context-schema.json#/definitions/Chai.Members"
                }
            },
            "type": "object"
        },
        "Chai.Keys": {
            "type": "object"
        },
        "Chai.Length": {
            "properties": {
                "above": {
                    "$ref": "http://crawl-e.cinepass.de/schemas/context-schema.json#/definitions/Chai.NumberComparer"
                },
                "and": {
                    "$ref": "http://crawl-e.cinepass.de/schemas/context-schema.json#/definitions/Chai.Assertion"
                },
                "at": {
                    "$ref": "http://crawl-e.cinepass.de/schemas/context-schema.json#/definitions/Chai.Assertion"
                },
                "be": {
                    "$ref": "http://crawl-e.cinepass.de/schemas/context-schema.json#/definitions/Chai.Assertion"
                },
                "been": {
                    "$ref": "http://crawl-e.cinepass.de/schemas/context-schema.json#/definitions/Chai.Assertion"
                },
                "below": {
                    "$ref": "http://crawl-e.cinepass.de/schemas/context-schema.json#/definitions/Chai.NumberComparer"
                },
                "but": {
                    "$ref": "http://crawl-e.cinepass.de/schemas/context-schema.json#/definitions/Chai.Assertion"
                },
                "does": {
                    "$ref": "http://crawl-e.cinepass.de/schemas/context-schema.json#/definitions/Chai.Assertion"
                },
                "greaterThan": {
                    "$ref": "http://crawl-e.cinepass.de/schemas/context-schema.json#/definitions/Chai.NumberComparer"
                },
                "greaterThanOrEqual": {
                    "$ref": "http://crawl-e.cinepass.de/schemas/context-schema.json#/definitions/Chai.NumberComparer"
                },
                "gt": {
                    "$ref": "http://crawl-e.cinepass.de/schemas/context-schema.json#/definitions/Chai.NumberComparer"
                },
                "gte": {
                    "$ref": "http://crawl-e.cinepass.de/schemas/context-schema.json#/definitions/Chai.NumberComparer"
                },
                "has": {
                    "$ref": "http://crawl-e.cinepass.de/schemas/context-schema.json#/definitions/Chai.Assertion"
                },
                "have": {
                    "$ref": "http://crawl-e.cinepass.de/schemas/context-schema.json#/definitions/Chai.Assertion"
                },
                "is": {
                    "$ref": "http://crawl-e.cinepass.de/schemas/context-schema.json#/definitions/Chai.Assertion"
                },
                "least": {
                    "$ref": "http://crawl-e.cinepass.de/schemas/context-schema.json#/definitions/Chai.NumberComparer"
                },
                "lessThan": {
                    "$ref": "http://crawl-e.cinepass.de/schemas/context-schema.json#/definitions/Chai.NumberComparer"
                },
                "lessThanOrEqual": {
                    "$ref": "http://crawl-e.cinepass.de/schemas/context-schema.json#/definitions/Chai.NumberComparer"
                },
                "lt": {
                    "$ref": "http://crawl-e.cinepass.de/schemas/context-schema.json#/definitions/Chai.NumberComparer"
                },
                "lte": {
                    "$ref": "http://crawl-e.cinepass.de/schemas/context-schema.json#/definitions/Chai.NumberComparer"
                },
                "most": {
                    "$ref": "http://crawl-e.cinepass.de/schemas/context-schema.json#/definitions/Chai.NumberComparer"
                },
                "of": {
                    "$ref": "http://crawl-e.cinepass.de/schemas/context-schema.json#/definitions/Chai.Assertion"
                },
                "same": {
                    "$ref": "http://crawl-e.cinepass.de/schemas/context-schema.json#/definitions/Chai.Assertion"
                },
                "that": {
                    "$ref": "http://crawl-e.cinepass.de/schemas/context-schema.json#/definitions/Chai.Assertion"
                },
                "to": {
                    "$ref": "http://crawl-e.cinepass.de/schemas/context-schema.json#/definitions/Chai.Assertion"
                },
                "which": {
                    "$ref": "http://crawl-e.cinepass.de/schemas/context-schema.json#/definitions/Chai.Assertion"
                },
                "with": {
                    "$ref": "http://crawl-e.cinepass.de/schemas/context-schema.json#/definitions/Chai.Assertion"
                }
            },
            "type": "object"
        },
        "Chai.Match": {
            "type": "object"
        },
        "Chai.Members": {
            "type": "object"
        },
        "Chai.Nested": {
            "properties": {
                "contain": {
                    "$ref": "http://crawl-e.cinepass.de/schemas/context-schema.json#/definitions/Chai.Include"
                },
                "contains": {
                    "$ref": "http://crawl-e.cinepass.de/schemas/context-schema.json#/definitions/Chai.Include"
                },
                "include": {
                    "$ref": "http://crawl-e.cinepass.de/schemas/context-schema.json#/definitions/Chai.Include"
                },
                "includes": {
                    "$ref": "http://crawl-e.cinepass.de/schemas/context-schema.json#/definitions/Chai.Include"
                },
                "members": {
                    "$ref": "http://crawl-e.cinepass.de/schemas/context-schema.json#/definitions/Chai.Members"
                },
                "property": {
                    "$ref": "http://crawl-e.cinepass.de/schemas/context-schema.json#/definitions/Chai.Property"
                }
            },
            "type": "object"
        },
        "Chai.NumberComparer": {
            "type": "object"
        },
        "Chai.OneOf": {
            "type": "object"
        },
        "Chai.Ordered": {
            "properties": {
                "members": {
                    "$ref": "http://crawl-e.cinepass.de/schemas/context-schema.json#/definitions/Chai.Members"
                }
            },
            "type": "object"
        },
        "Chai.Own": {
            "properties": {
                "contain": {
                    "$ref": "http://crawl-e.cinepass.de/schemas/context-schema.json#/definitions/Chai.Include"
                },
                "contains": {
                    "$ref": "http://crawl-e.cinepass.de/schemas/context-schema.json#/definitions/Chai.Include"
                },
                "include": {
                    "$ref": "http://crawl-e.cinepass.de/schemas/context-schema.json#/definitions/Chai.Include"
                },
                "includes": {
                    "$ref": "http://crawl-e.cinepass.de/schemas/context-schema.json#/definitions/Chai.Include"
                },
                "property": {
                    "$ref": "http://crawl-e.cinepass.de/schemas/context-schema.json#/definitions/Chai.Property"
                }
            },
            "type": "object"
        },
        "Chai.OwnPropertyDescriptor": {
            "type": "object"
        },
        "Chai.Property": {
            "type": "object"
        },
        "Chai.PropertyChange": {
            "type": "object"
        },
        "Chai.RespondTo": {
            "type": "object"
        },
        "Chai.Satisfy": {
            "type": "object"
        },
        "Chai.Throw": {
            "type": "object"
        },
        "Function": {
            "properties": {
                "arguments": {},
                "caller": {
                    "$ref": "http://crawl-e.cinepass.de/schemas/context-schema.json#/definitions/Function"
                },
                "length": {
                    "type": "number"
                },
                "name": {
                    "type": "string"
                },
                "prototype": {}
            },
            "type": "object"
        },
        "MovieVersion": {
            "properties": {
                "attributes": {
                    "description": "Arbitrary list of the movie's version attributes",
                    "items": {
                        "type": "string"
                    },
                    "type": "array"
                },
                "is3d": {
                    "description": "Flag whether the movie's showtimes are in 3D",
                    "type": "boolean"
                },
                "isImax": {
                    "description": "Flag whether the movie's showtimes are in IMAX",
                    "type": "boolean"
                },
                "language": {
                    "description": "The movie's / it's showtimes spoking language.",
                    "type": "string"
                },
                "subtitles": {
                    "description": "The movie's / it's showtimes subtitle languages.",
                    "items": {
                        "type": "string"
                    },
                    "type": "array"
                }
            },
            "type": "object"
        },
        "Partial<Cinema>": {
            "properties": {
                "address": {
                    "description": "The full address as of the cinema",
                    "type": "string"
                },
                "email": {
                    "description": "eMail address of the cinema",
                    "type": "string"
                },
                "href": {
                    "description": "The cinema's href, relative link or absolute url in case of cinemas publishing showtimes on movie pages",
                    "type": "string"
                },
                "id": {
                    "description": "Identifier as of the crawled website",
                    "type": "string"
                },
                "is_temporarily_closed": {
                    "description": "Indicates whether the cinema is temporarirly clsoed",
                    "type": "boolean"
                },
                "lat": {
                    "description": "latitude of the cinemas geo location",
                    "type": "number"
                },
                "lon": {
                    "description": "longitude of the cinemas geo location",
                    "type": "number"
                },
                "name": {
                    "description": "Name or title of the cinemas as it appears on the source website",
                    "type": "string"
                },
                "phone": {
                    "description": "Telephone number is a human-readable format",
                    "type": "string"
                },
                "slug": {
                    "description": "slug identifier for creation of the cinema's output file",
                    "type": "string"
                },
                "website": {
                    "description": "URL to the cinema's website",
                    "type": "string"
                }
            },
            "type": "object"
        },
        "Partial<Movie>": {
            "properties": {
                "directors": {
                    "description": "The movie's directors",
                    "items": {
                        "type": "string"
                    },
                    "type": "array"
                },
                "href": {
                    "description": "The movie's href, relative link or absolute url in case of cinemas publishing showtimes on movie pages",
                    "type": "string"
                },
                "id": {
                    "description": "Id of the movie used by the cinema's website",
                    "type": "string"
                },
                "imdbId": {
                    "description": "The movie's imdb id",
                    "type": "string"
                },
                "moviePageLink": {
                    "description": "The movie's page link",
                    "type": "string"
                },
                "releaseDate": {
                    "description": "The release date of the movie in ISO8601 format",
                    "type": "string"
                },
                "title": {
                    "description": "The movie's localized title as displayed on the cinema's website",
                    "type": "string"
                },
                "titleOriginal": {
                    "description": "The movie's original title as displayed on the cinema's website",
                    "type": "string"
                },
                "type": {
                    "description": "The type, e.g. \"event\", \"movie\", \"concert\", etc...",
                    "type": "string"
                },
                "version": {
                    "$ref": "http://crawl-e.cinepass.de/schemas/context-schema.json#/definitions/MovieVersion",
                    "description": "Map of flags for the movie's version"
                }
            },
            "type": "object"
        },
        "Partial<MovieVersion>": {
            "properties": {
                "attributes": {
                    "description": "Arbitrary list of the movie's version attributes",
                    "items": {
                        "type": "string"
                    },
                    "type": "array"
                },
                "is3d": {
                    "description": "Flag whether the movie's showtimes are in 3D",
                    "type": "boolean"
                },
                "isImax": {
                    "description": "Flag whether the movie's showtimes are in IMAX",
                    "type": "boolean"
                },
                "language": {
                    "description": "The movie's / it's showtimes spoking language.",
                    "type": "string"
                },
                "subtitles": {
                    "description": "The movie's / it's showtimes subtitle languages.",
                    "items": {
                        "type": "string"
                    },
                    "type": "array"
                }
            },
            "type": "object"
        },
        "Resource": {
            "description": "An resource model that the framework may work on.",
            "enum": [
                "CinemaDetails",
                "CinemaList",
                "DateList",
                "MovieDetails",
                "MovieList",
                "Showtimes"
            ],
            "type": "string"
        },
        "default": {
            "description": "Object that get's passed around to provide in various iterations\nE.g. gives access to current crawled cinema or the date it currently iterates thouhg.",
            "properties": {
                "addWarning": {
                    "type": "object"
                },
                "auditorium": {
                    "description": "The title of the auditorium showtimes are shown in",
                    "type": "string"
                },
                "callstack": {
                    "description": "Stack trace of internal methods. Provides additional context for implementing hooks or mappers.",
                    "items": {
                        "type": "string"
                    },
                    "type": "array"
                },
                "cinema": {
                    "$ref": "http://crawl-e.cinepass.de/schemas/context-schema.json#/definitions/Partial<Cinema>",
                    "description": "The cinema showtimes are crawled for, either from static config or retrieved via cinema list crawling"
                },
                "currentTask": {
                    "description": "The currently worked on task. Use for internal progress tracking. \nMay only be used as additinoal context hooks if `requestUrl` or `resource` is not precise enough.",
                    "type": "string"
                },
                "date": {
                    "$ref": "http://crawl-e.cinepass.de/schemas/context-schema.json#/definitions/moment.Moment",
                    "description": "The date of the showtimes (without time). Retrieved either from iterating date boxes or the date of the url request."
                },
                "dateHref": {
                    "description": "The date page's href, relative link or absolute url in case of cinemas publishing showtimes on dynamicly crawled date pages",
                    "type": "string"
                },
                "indexes": {
                    "description": "Current indexes of iterations",
                    "properties": {
                        "page": {
                            "description": "On pagination, the index of the current page",
                            "type": "number"
                        },
                        "tab": {
                            "description": "When parsing tabs, the index of the current tab or card",
                            "type": "number"
                        },
                        "table": {
                            "$ref": "http://crawl-e.cinepass.de/schemas/context-schema.json#/definitions/default.CellReference",
                            "description": "Reference of the current table cell"
                        }
                    },
                    "type": "object"
                },
                "isTemporarilyClosed": {
                    "description": "Flag that indicates if a cinema is temporarirly clsoed.",
                    "type": "boolean"
                },
                "movie": {
                    "$ref": "http://crawl-e.cinepass.de/schemas/context-schema.json#/definitions/Partial<Movie>",
                    "description": "The movie a showtime is for."
                },
                "page": {
                    "description": "on static pagination: the current pages value",
                    "type": "string"
                },
                "parentContext": {
                    "$ref": "http://crawl-e.cinepass.de/schemas/context-schema.json#/definitions/default",
                    "description": "The context which this context is cloned from. \nWas the framework is traversing through deep nested html structures and multiple urls, \nthe context is cloned to allow adding details to it that is not relevant in broader scopes."
                },
                "period": {
                    "description": "List of dates covering the current program period",
                    "items": {
                        "$ref": "http://crawl-e.cinepass.de/schemas/context-schema.json#/definitions/moment.Moment"
                    },
                    "type": "array"
                },
                "popCallstack": {
                    "description": "Removes the last method from the callstack",
                    "type": "object"
                },
                "pushCallstack": {
                    "description": "Adds the current executed method to the callstack",
                    "type": "object"
                },
                "requestUrl": {
                    "description": "The URL of the currently parsed web page",
                    "type": "string"
                },
                "resource": {
                    "$ref": "http://crawl-e.cinepass.de/schemas/context-schema.json#/definitions/Resource",
                    "description": "The resource currently worked on. Provides additional context for implementing hooks or mappers"
                },
                "tabId": {
                    "description": "When parsing tabs, the identifier of the current tab, to find the corresponding content container",
                    "type": "string"
                },
                "trackCallstackAsync": {
                    "description": "Adds the current asnyc executed method to the callstack and wraps the given callback so that it will pop the callstack",
                    "type": "object"
                },
                "version": {
                    "$ref": "http://crawl-e.cinepass.de/schemas/context-schema.json#/definitions/Partial<MovieVersion>",
                    "description": "Map of flags for the movies version"
                },
                "warnings": {
                    "description": "List of warnings that occurred while running",
                    "items": {
                        "$ref": "http://crawl-e.cinepass.de/schemas/context-schema.json#/definitions/default.Warning"
                    },
                    "type": "array"
                }
            },
            "type": "object"
        },
        "default.CellReference": {
            "properties": {
                "col": {
                    "description": "cell's row index",
                    "type": "integer"
                },
                "row": {
                    "description": "cell's row index",
                    "type": "integer"
                }
            },
            "type": "object"
        },
        "default.Warning": {
            "properties": {
                "acceptedReason": {
                    "description": "Reason why the warning may be accepted.",
                    "type": "string"
                },
                "code": {
                    "type": "integer"
                },
                "details": {
                    "description": "payload with details"
                },
                "formatDetails": {
                    "description": "function to format the issues details for printing to console",
                    "type": "object"
                },
                "recoveryHint": {
                    "description": "developer hint on how to resolve the warning",
                    "type": "string"
                },
                "title": {
                    "type": "string"
                }
            },
            "type": "object"
        },
        "moment.Moment": {
            "properties": {
                "constructor": {
                    "$ref": "http://crawl-e.cinepass.de/schemas/context-schema.json#/definitions/Function"
                },
                "should": {
                    "$ref": "http://crawl-e.cinepass.de/schemas/context-schema.json#/definitions/Chai.Assertion"
                }
            },
            "type": "object"
        }
    },
    "description": "Object that get's passed around to provide in various iterations\nE.g. gives access to current crawled cinema or the date it currently iterates thouhg."
}

