{
    "$id": "http://crawl-e.cinepass.de/schemas/dates-parsing-config.json",
    "$schema": "http://json-schema.org/draft-07/schema#",
    "properties": {
        "compoundSeparator": {
            "description": "string or regex pattern to find a list of dates",
            "type": "string"
        },
        "dateFormat": {
            "anyOf": [
                {
                    "properties": {
                        "__momentBuiltinFormatBrand": {}
                    },
                    "required": [
                        "__momentBuiltinFormatBrand"
                    ],
                    "type": "object"
                },
                {
                    "items": {
                        "anyOf": [
                            {
                                "properties": {
                                    "__momentBuiltinFormatBrand": {}
                                },
                                "required": [
                                    "__momentBuiltinFormatBrand"
                                ],
                                "type": "object"
                            },
                            {
                                "type": "string"
                            }
                        ]
                    },
                    "type": "array"
                },
                {
                    "type": "string"
                }
            ],
            "description": "format for parsing date sub-strings"
        },
        "dateLocale": {
            "description": "locale for parsing the date with moment, defaults to `'en'`",
            "type": "string"
        },
        "dateRegexPattern": {
            "description": "regular expression to find dates, will be inferred from `dateFormat` if omitted",
            "type": "string"
        },
        "rangeSeparator": {
            "description": "string or regex pattern to find a date range",
            "type": "string"
        }
    },
    "required": [
        "dateFormat"
    ],
    "type": "object"
}

