{
    "$id": "http://crawl-e.cinepass.de/schemas/datepage-schema.json",
    "$schema": "http://json-schema.org/draft-07/schema#",
    "properties": {
        "date": {
            "description": "The pages date as [momentjs](http://momentjs.com/) object",
            "properties": {
                "constructor": {
                    "$ref": "http://crawl-e.cinepass.de/schemas/datepage-schema.json#/definitions/Function"
                },
                "should": {
                    "$ref": "http://crawl-e.cinepass.de/schemas/datepage-schema.json#/definitions/Chai.Assertion"
                }
            },
            "required": [
                "constructor",
                "should"
            ],
            "type": "object"
        },
        "href": {
            "description": "The date's href, which should contain a path string relative to the webiste's base url.",
            "type": "string"
        }
    },
    "required": [
        "date",
        "href"
    ],
    "type": "object"
}

